%YAML 1.1
%TAG !u! tag:unity3d.com,2011:
--- !u!114 &11400000
MonoBehaviour:
  m_ObjectHideFlags: 0
  m_CorrespondingSourceObject: {fileID: 0}
  m_PrefabInstance: {fileID: 0}
  m_PrefabAsset: {fileID: 0}
  m_GameObject: {fileID: 0}
  m_Enabled: 1
  m_EditorHideFlags: 0
  m_Script: {fileID: 11500000, guid: 676ef60095dab4b43a100f1861670469, type: 3}
  m_Name: MeatPattyCooked-MeatPattyBurned
  m_EditorClassIdentifier: 
  input: {fileID: 11400000, guid: 46c5295696555b547bbc101e2d327a14, type: 2}
  output: {fileID: 11400000, guid: 5cbf829ed054c054d83d6c0d4ce309a9, type: 2}
  burningTimerMax: 3
