%YAML 1.1
%TAG !u! tag:unity3d.com,2011:
--- !u!1001 &2292751618524961324
PrefabInstance:
  m_ObjectHideFlags: 0
  serializedVersion: 2
  m_Modification:
    serializedVersion: 3
    m_TransformParent: {fileID: 0}
    m_Modifications:
    - target: {fileID: 3881415711351480275, guid: 38cb574735dd6a34d89ca93efa62057d,
        type: 3}
      propertyPath: m_Sprite
      value: 
      objectReference: {fileID: 21300000, guid: aa1bacc24dde76e47b2ec0dd4e82385b,
        type: 3}
    - target: {fileID: 4271980394619082537, guid: 38cb574735dd6a34d89ca93efa62057d,
        type: 3}
      propertyPath: m_RootOrder
      value: 0
      objectReference: {fileID: 0}
    - target: {fileID: 4271980394619082537, guid: 38cb574735dd6a34d89ca93efa62057d,
        type: 3}
      propertyPath: m_LocalPosition.x
      value: 0
      objectReference: {fileID: 0}
    - target: {fileID: 4271980394619082537, guid: 38cb574735dd6a34d89ca93efa62057d,
        type: 3}
      propertyPath: m_LocalPosition.y
      value: 0
      objectReference: {fileID: 0}
    - target: {fileID: 4271980394619082537, guid: 38cb574735dd6a34d89ca93efa62057d,
        type: 3}
      propertyPath: m_LocalPosition.z
      value: 0
      objectReference: {fileID: 0}
    - target: {fileID: 4271980394619082537, guid: 38cb574735dd6a34d89ca93efa62057d,
        type: 3}
      propertyPath: m_LocalRotation.w
      value: 0
      objectReference: {fileID: 0}
    - target: {fileID: 4271980394619082537, guid: 38cb574735dd6a34d89ca93efa62057d,
        type: 3}
      propertyPath: m_LocalRotation.x
      value: 0
      objectReference: {fileID: 0}
    - target: {fileID: 4271980394619082537, guid: 38cb574735dd6a34d89ca93efa62057d,
        type: 3}
      propertyPath: m_LocalRotation.y
      value: -1
      objectReference: {fileID: 0}
    - target: {fileID: 4271980394619082537, guid: 38cb574735dd6a34d89ca93efa62057d,
        type: 3}
      propertyPath: m_LocalRotation.z
      value: 0
      objectReference: {fileID: 0}
    - target: {fileID: 4271980394619082537, guid: 38cb574735dd6a34d89ca93efa62057d,
        type: 3}
      propertyPath: m_LocalEulerAnglesHint.x
      value: 0
      objectReference: {fileID: 0}
    - target: {fileID: 4271980394619082537, guid: 38cb574735dd6a34d89ca93efa62057d,
        type: 3}
      propertyPath: m_LocalEulerAnglesHint.y
      value: -180
      objectReference: {fileID: 0}
    - target: {fileID: 4271980394619082537, guid: 38cb574735dd6a34d89ca93efa62057d,
        type: 3}
      propertyPath: m_LocalEulerAnglesHint.z
      value: 0
      objectReference: {fileID: 0}
    - target: {fileID: 4271980394619082542, guid: 38cb574735dd6a34d89ca93efa62057d,
        type: 3}
      propertyPath: m_Name
      value: ContainerCounter_MeatPattyUncooked
      objectReference: {fileID: 0}
    - target: {fileID: 6348992794634839330, guid: 38cb574735dd6a34d89ca93efa62057d,
        type: 3}
      propertyPath: kitchenObjectSO
      value: 
      objectReference: {fileID: 11400000, guid: b5cd5b4c4d57caa4b9c8e1fa5fb2d0a0,
        type: 2}
    m_RemovedComponents: []
    m_RemovedGameObjects: []
    m_AddedGameObjects: []
    m_AddedComponents: []
  m_SourcePrefab: {fileID: 100100000, guid: 38cb574735dd6a34d89ca93efa62057d, type: 3}
